{
 "font": {
  "fileName": "AvilesTwo-Regular"
 }, 
 "generator": {
  "contextualShape": true, 
  "insideCornerRadius": 6, 
  "offset": 0, 
  "outsideCornerRadius": 0, 
  "width": 125
 }, 
 "inherit": [
  "./options/options.json"
 ], 
 "metadata": {
  "familyname": "Aviles Two", 
  "fontname": "Aviles Two-Regular", 
  "fullname": "Aviles Two Regular", 
  "more": {
   "English": {
    "Descriptor": "Built with graphicoreBMFB and Fontforge.", 
    "Designer": "Luther Blissett, Lando Manelio", 
    "Designer URL": "", 
    "License": "OFL", 
    "License URL": "http://scripts.sil.org/OFL", 
    "Manufacturer": "Manufactura Independente", 
    "SubFamily": "Regular", 
    "Trademark": "", 
    "Vendor URL": "http://manufacturaindependente.org"
   }
  }, 
  "weight": "Regular"
 }
}
